,feature_sel,input_feature_list,top_features,train
0,"SelectKBest(k=5, score_func=<function chi2 at 0x10b6d8bf8>)",['liwc'],"['liwc_currentBiological Processes', 'liwc_currentHealth', 'liwc_currentSexual', 'liwc_currentWords Per Sentence', 'liwc_currentpower']",/Users/amita/git/argument_summarization_17/data/data_originalsummaries/abortion/Mturk/mturkcontributorresults/balancedclean/all_mtbatch_ABTrain_Coref_featuresbalance.csv
1,"SelectKBest(k=5, score_func=<function chi2 at 0x10b6d8bf8>)",['liwc'],"['liwc_currentFirst Person Singular', 'liwc_currentMoney', 'liwc_currentNumerals', 'liwc_currentSecond Person', 'liwc_currentWords Per Sentence']",/Users/amita/git/argument_summarization_17/data/data_originalsummaries/gun-control/Mturk/Features/balancedclean/all_mtbatch_GCTrain_Coref_featuresbalance.csv
2,"SelectKBest(k=5, score_func=<function chi2 at 0x10b6d8bf8>)",['liwc'],"['liwc_currentFamily', 'liwc_currentSexual', 'liwc_currentWords Per Sentence', 'liwc_currentaffiliation', 'liwc_currentdrives']",/Users/amita/git/argument_summarization_17/data/data_originalsummaries/gay-rights-debates/Mturk/mturkcontributorresults/balancedclean/all_mtbatch_GMTrain_featuresbalance.csv
