Acurracy,batchsize,dim,droput,epochs,f1weighted,feature_list
59.21052633819723,64,300,0.2,5,0.5509815132456642,['read']
66.35338354827766,64,300,0.2,5,0.6613212412198809,['liwc']
61.65413533834586,64,300,0.2,5,0.5853088174606813,['dialog']
66.35338345864662,64,300,0.2,5,0.6618984218281231,"['read', 'dialog']"
65.97744365383808,64,300,0.2,5,0.6579361498811735,"['read', 'liwc']"
67.2932331723378,64,300,0.2,5,0.672636224749618,"['liwc', 'dialog']"
66.72932326345516,64,300,0.2,5,0.6654955719832472,"['liwc', 'read', 'dialog']"
67.29323312752229,64,300,0.2,5,0.6720238095238095,['Turn']
63.15789478165763,64,300,0.2,5,0.6151245367704595,['liwc_curr']
63.72180448887044,64,300,0.2,5,0.6236534309790597,"['liwc_curr', 'SNLP_NoCoref_Sentiment', 'read']"
66.54135333864313,64,300,0.2,5,0.6649399909420289,"['liwc', 'read', 'dialog', 'SNLP_NoCoref_Sentimen']"
